<?xml version="1.0" standalone="no"?>
<!DOCTYPE svg PUBLIC "-//W3C//DTD SVG 1.1//EN" "http://www.w3.org/Graphics/SVG/1.1/DTD/svg11.dtd" >
<!--
2016-12-6: Created.
-->
<svg xmlns="http://www.w3.org/2000/svg">
<metadata>
Created by FontForge 20120731 at Tue Dec  6 11:29:43 2016
 By Apache
Created by Apache with FontForge 2.0 (http://fontforge.sf.net)
</metadata>
<defs>
<font id="Flaticon" horiz-adv-x="512" >
  <font-face 
    font-family="Flaticon"
    font-weight="500"
    font-stretch="normal"
    units-per-em="512"
    panose-1="2 0 6 3 0 0 0 0 0 0"
    ascent="448"
    descent="-64"
    bbox="-0.0012207 -64.001 512.001 448.001"
    underline-thickness="25.6"
    underline-position="-51.2"
    unicode-range="U+0020-F10C"
  />
    <missing-glyph />
    <glyph glyph-name="space" unicode=" " horiz-adv-x="200" 
 />
    <glyph glyph-name="uniF100" unicode="&#xf100;" 
d="M449.716 208.158c0.380859 -5.30859 0.576172 -10.7441 0.576172 -16.1582c0 -124.146 -100.999 -225.145 -225.145 -225.145c-124.146 0 -225.147 101 -225.147 225.145s101.001 225.146 225.146 225.145c49.167 0 95.8691 -15.5645 135.059 -45.0117
c6.04004 -4.53809 7.25684 -13.1143 2.7168 -19.1543c-4.53906 -6.03809 -13.1133 -7.25586 -19.1543 -2.71777c-34.4092 25.8574 -75.4287 39.5254 -118.619 39.5254c-109.062 0 -197.787 -88.7266 -197.787 -197.786s88.7256 -197.787 197.786 -197.787
c109.06 0 197.785 88.7266 197.785 197.787c0 4.75977 -0.168945 9.53613 -0.505859 14.1914c-0.541992 7.53516 5.12598 14.085 12.6621 14.6279c7.5459 0.529297 14.085 -5.12598 14.6279 -12.6611zM496.395 386.23c20.8066 -20.8096 20.8066 -54.665 0 -75.4727
l-247.575 -247.576c-6.89551 -6.89453 -15.9512 -10.3418 -25.0088 -10.3418c-9.05566 0 -18.1113 3.44727 -25.0068 10.3418l-120.341 120.342c-20.8076 20.8076 -20.8076 54.666 0 75.4736c20.8086 20.8066 54.666 20.8066 75.4736 0l69.874 -69.875l197.11 197.108
c20.8076 20.8066 54.666 20.8066 75.4736 0zM477.049 330.103c10.1406 10.1416 10.1406 26.6406 0 36.7812c-10.1406 10.1416 -26.6426 10.1416 -36.7812 0l-199.114 -199.117c-4.63086 -4.63086 -10.79 -7.18164 -17.3408 -7.18164
c-6.54883 0 -12.707 2.5498 -17.3398 7.18066l-71.8818 71.8828c-5.06836 5.07031 -11.7285 7.60547 -18.3896 7.60547s-13.3203 -2.53418 -18.3906 -7.60547c-10.1406 -10.1416 -10.1406 -26.6406 0 -36.7812l120.342 -120.342
c3.12012 -3.12012 8.19922 -3.12012 11.3193 0z" />
    <glyph glyph-name="uniF109" unicode="&#xf109;" 
d="M423.445 387.713c19.6123 0 34.9033 -15.2871 34.9033 -34.9053v-25.3838v-31.7285h-29.999v-325.081c0 -19.6182 -15.2852 -34.6152 -34.9033 -34.6152h-274.893c-19.6172 0 -34.6143 14.9971 -34.6143 34.6152v325.081h-30.2881v31.7285v25.3838
c0 19.6182 15.2852 34.9043 34.9033 34.9043h68.6504v44.4238c0 8.94141 6.92285 15.8643 15.8643 15.8643h1.15723h1.15039h160.667c0.289062 0 0.868164 -0.290039 1.15723 -0.578125c0.282227 0.288086 0.861328 0.578125 1.72852 0.578125
c8.94141 0 16.1543 -6.92285 16.1543 -15.8643v-44.4229h68.3613zM188.934 416.271v-28.5586h134.133v28.5586h-134.133zM396.332 -29.3867v325.083h-280.664v-325.083c0 -2.02344 0.868164 -2.88477 2.88574 -2.88477h274.893c2.01855 0 2.88574 0.861328 2.88574 2.88477z
M426.332 327.425v25.3838c0 2.01855 -0.868164 3.17578 -2.88672 3.17578h-334.892c-2.01758 0 -2.88574 -1.15723 -2.88574 -3.17578v-25.3838h340.664zM314.124 -4.00195v262.486h32.0176v-262.486h-32.0176zM240.28 -4.00195v262.486h32.0176v-262.486h-32.0176z
M166.436 -4.00195v262.486h32.0176v-262.486h-32.0176z" />
    <glyph glyph-name="uniF103" unicode="&#xf103;" 
d="M503.697 216.105c11.0693 -14.1934 11.0693 -34.0156 0 -48.2109c-28.7363 -36.8438 -65.9561 -67.3184 -107.637 -88.1279c-42.5479 -21.2432 -88.3223 -32.2637 -136.104 -32.8428c-1.31543 -0.0361328 -6.59961 -0.0361328 -7.91602 0
c-47.7822 0.578125 -93.5557 11.5996 -136.104 32.8428c-41.6807 20.8096 -78.9004 51.2852 -107.636 88.1279c-11.0693 14.1934 -11.0693 34.0176 0 48.2109c28.7363 36.8438 65.9551 67.3184 107.636 88.1279c42.5479 21.2432 88.3223 32.2637 136.104 32.8428
c1.31641 0.0361328 6.60059 0.0361328 7.91602 0c47.7832 -0.578125 93.5566 -11.5996 136.104 -32.8428c41.6807 -20.8105 78.9014 -51.2852 107.637 -88.1279zM125.242 98.4014c11.0547 -5.51855 22.3457 -10.293 33.8428 -14.333
c-29.5811 26.5869 -48.2168 65.1221 -48.2168 107.933c0 42.8076 18.6348 81.3398 48.2129 107.928c-11.4971 -4.04004 -22.7852 -8.8125 -33.8389 -14.3301c-38.9209 -19.4326 -73.6797 -47.8926 -100.518 -82.3027c-5.18652 -6.65137 -5.18652 -15.9404 0 -22.5918
c26.8389 -34.4102 61.5977 -62.8701 100.518 -82.3027zM255.999 67.6973c68.542 0 124.304 55.7617 124.304 124.304c0 68.541 -55.7617 124.304 -124.304 124.304c-68.541 0 -124.304 -55.7617 -124.304 -124.303c0 -68.542 55.7627 -124.305 124.304 -124.305z
M487.274 180.705c5.18652 6.65137 5.18652 15.9404 0.000976562 22.5928c-26.8389 34.4102 -61.5977 62.8701 -100.518 82.3027c-11.0566 5.52051 -22.3496 10.2988 -33.8496 14.3398c29.583 -26.5879 48.2227 -65.125 48.2227 -107.938
c0 -42.791 -18.6211 -81.3115 -48.1787 -107.898c11.4834 4.03613 22.7637 8.78711 33.8047 14.2988c38.9209 19.4326 73.6797 47.8926 100.518 82.3027zM255.999 245.196c29.333 0 53.1963 -23.8633 53.1953 -53.1943c0 -29.332 -23.8633 -53.1953 -53.1953 -53.1953
c-29.3311 0 -53.1943 23.8633 -53.1943 53.1953c0 29.3311 23.8633 53.1943 53.1943 53.1943zM255.999 159.634c17.8477 0 32.3682 14.5186 32.3672 32.3682c0 17.8477 -14.5195 32.3662 -32.3672 32.3662c-17.8486 0 -32.3672 -14.5186 -32.3672 -32.3662
c0 -17.8496 14.5205 -32.3682 32.3672 -32.3682z" />
    <glyph glyph-name="uniF101" unicode="&#xf101;" 
d="M397.736 369.622c-6.8252 0 -12.3594 5.5332 -12.3594 12.3584v38.9922c0 1.27441 -1.03027 2.31152 -2.29688 2.31152h-249.079v-75.3604c0 -14.8965 -12.1182 -27.0166 -27.0156 -27.0166h-75.3604v-357.88c0 -1.27441 1.03711 -2.31152 2.31055 -2.31152h349.146
c1.26562 0 2.29688 1.03711 2.29688 2.31152v188.684c0 6.8252 5.53418 12.3584 12.3584 12.3584s12.3574 -5.53418 12.3564 -12.3584v-188.684c0 -14.9023 -12.1172 -27.0273 -27.0137 -27.0273h-349.145c-14.9023 0 -27.0264 12.125 -27.0273 27.0283v370.238
c0 3.27734 1.30273 6.4209 3.62012 8.73828l102.375 102.375c2.31836 2.31738 5.46191 3.62012 8.73828 3.62012h261.439c14.8965 0 27.0137 -12.125 27.0137 -27.0273v-38.9922c0 -6.8252 -5.53418 -12.3584 -12.3574 -12.3584zM109.285 347.925v57.8789l-60.1777 -60.1797
h57.8779c1.26758 0 2.2998 1.03223 2.2998 2.30078zM492.865 347.604c16.3027 -16.3037 16.3027 -42.8311 0.000976562 -59.1338l-239.438 -239.435c-1.50684 -1.50684 -3.37891 -2.59961 -5.43262 -3.16895c0 0 -77.9326 -21.625 -77.9971 -21.6426
c-0.398438 -0.103516 -3.10645 -0.40918 -3.10742 -0.40918h-63.332c-6.82422 0 -12.3574 5.53223 -12.3574 12.3574s5.5332 12.3584 12.3574 12.3584h53.9365l19.0879 68.7471c0.571289 2.05371 1.66113 3.9248 3.16895 5.43262l0.199219 0.199219h-76.3926
c-6.82422 0 -12.3574 5.5332 -12.3574 12.3574c0 6.8252 5.5332 12.3584 12.3574 12.3584h101.109l74.3789 74.3789h-175.488c-6.82422 0 -12.3574 5.5332 -12.3574 12.3584c0 6.82422 5.5332 12.3574 12.3574 12.3574h200.204l115.423 115.423
c16.3066 16.3027 42.834 16.3047 59.1387 0zM184.644 53.9268l36.3271 10.0859l-26.2393 26.2402zM244.69 75.248l197.648 197.648l-38.7217 38.7207l-197.648 -197.648zM475.387 305.946c6.66699 6.66602 6.66699 17.5137 0 24.1807l-14.541 14.541
c-6.66406 6.66699 -17.5117 6.66797 -24.1807 0l-15.5713 -15.5713l38.7227 -38.7217z" />
    <glyph glyph-name="uniF102" unicode="&#xf102;" 
d="M511.645 321.366l0.353516 -258.029c0.0166016 -14.4619 -11.7324 -26.2412 -26.1904 -26.2607l-459.192 -0.630859h-0.0351562c-6.99316 0 -13.5684 2.7168 -18.5195 7.6543c-4.95996 4.94727 -7.69629 11.5303 -7.70508 18.5352l-0.355469 258.028
c-0.00878906 7.00293 2.70898 13.5938 7.65527 18.5547c4.94629 4.95996 11.5293 7.69727 18.5352 7.70605l459.193 0.631836h0.0341797c14.4453 0 26.2061 -11.7402 26.2266 -26.1895zM456.61 321.29l-401.57 -0.551758l200.979 -138.892zM340.846 155.529
c-5.72461 4.43848 -6.76562 12.6758 -2.32617 18.3984c4.4375 5.72168 12.6777 6.7627 18.3965 2.32617l128.856 -99.9316l-0.336914 233.066l-221.911 -154.264c-2.24902 -1.56348 -4.86816 -2.34668 -7.48535 -2.34668c-2.60547 0 -5.21094 0.774414 -7.4541 2.3252
l-222.344 153.657l0.319336 -232.475l128.907 99.9688c5.72363 4.4375 13.96 3.39551 18.3984 -2.32617c4.43848 -5.72461 3.39648 -13.96 -2.3252 -18.3994l-119.696 -92.8242l407.972 0.55957z" />
    <glyph glyph-name="uniF105" unicode="&#xf105;" 
d="M419.897 224.875c15.2705 0 27.6787 -12.4082 27.6787 -27.6787v-178.267c0 -45.707 -37.2236 -82.9297 -82.9297 -82.9297h-217.293c-45.7061 0 -82.9297 37.2227 -82.9297 82.9297v178.267c0 15.2715 12.4082 27.6787 27.6787 27.6787h291.632v66.7041
c0 70.5225 -57.3711 127.788 -127.787 127.788c-70.5225 0 -127.788 -57.3721 -127.788 -127.788c0 -7.95312 -6.36328 -14.3164 -14.3164 -14.3164c-7.9541 0 -14.3164 6.36328 -14.3164 14.3164c0 86.3232 70.2031 156.421 156.421 156.421
c86.3232 0 156.421 -70.2041 156.421 -156.421v-66.7041h7.5293zM418.942 18.9297v0v177.312h-325.779v-177.312c0 -30.0117 24.3916 -54.2969 54.2969 -54.2969h217.187c30.0117 0 54.2959 24.3916 54.2959 54.2969zM256.053 24.7627
c-29.5869 0 -53.5537 24.0723 -53.5537 53.5537s23.9668 53.5547 53.5537 53.5547c29.4814 0 53.5547 -23.9668 53.5547 -53.5547c0 -29.4814 -23.9668 -53.5537 -53.5547 -53.5537zM256.053 103.344c-13.7861 0 -24.9209 -11.3467 -24.9209 -25.0273
c0 -13.6797 11.1348 -24.9209 24.9209 -24.9209s24.9219 11.3467 24.9219 25.0273c0 13.6797 -11.1357 24.9209 -24.9219 24.9209z" />
    <glyph glyph-name="uniF10B" unicode="&#xf10b;" 
d="M512 192c0 -74.9385 -32.3682 -142.447 -83.8467 -189.291l0.250977 -0.213867l-8.51758 -7.1123c-0.847656 -0.716797 -1.77832 -1.32227 -2.64355 -2.02051c-3.90137 -3.17383 -7.91309 -6.20898 -12 -9.15039c-1.70312 -1.22852 -3.38867 -2.4668 -5.11035 -3.63965
c-4.78516 -3.27734 -9.70996 -6.3584 -14.7178 -9.30957c-1.35938 -0.800781 -2.71875 -1.58203 -4.08691 -2.35547c-5.50195 -3.09961 -11.1152 -6.01367 -16.8584 -8.71289c-0.708008 -0.334961 -1.4248 -0.642578 -2.13184 -0.967773
c-19.1953 -8.80664 -39.6572 -15.2949 -61.04 -19.1309c-0.577148 -0.111328 -1.16309 -0.213867 -1.74023 -0.316406c-6.6748 -1.14453 -13.4336 -2.04785 -20.2754 -2.67188c-0.866211 -0.0742188 -1.73145 -0.121094 -2.59766 -0.195312
c-6.83301 -0.548828 -13.7119 -0.912109 -20.6846 -0.912109c-7.03809 0 -13.9824 0.363281 -20.8525 0.930664c-0.84668 0.0751953 -1.68457 0.121094 -2.52246 0.195312c-6.89844 0.624023 -13.7129 1.55469 -20.4521 2.71875
c-0.577148 0.102539 -1.14551 0.205078 -1.71289 0.307617c-21.709 3.91895 -42.4678 10.5557 -61.915 19.5947c-0.4375 0.205078 -0.883789 0.391602 -1.32129 0.59668c-5.96777 2.81055 -11.7949 5.87402 -17.501 9.12207
c-1.14551 0.652344 -2.29004 1.30371 -3.42578 1.97363c-5.21387 3.08203 -10.3145 6.33008 -15.2861 9.75586c-1.53613 1.06152 -3.04395 2.15039 -4.55176 3.24023c-4.6543 3.36035 -9.22559 6.83301 -13.6377 10.4912
c-0.540039 0.446289 -1.12695 0.819336 -1.66699 1.27539l-8.30371 7l0.242188 0.213867c-51.0322 46.8252 -83.0928 114.027 -83.0928 188.584c0 141.153 114.847 256 256 256s256 -114.847 256 -256zM18.6182 192c0 -70.0234 30.4971 -133.046 78.8945 -176.537
c2.32715 1.66602 4.6543 3.15527 7 4.43066l73.6074 40.1504c6.6748 3.64844 10.8174 10.6309 10.8174 18.2266v26.9404c-5.73438 7.57812 -21.2529 29.9385 -28.793 59.4766c-7.87598 6.45117 -12.4746 16.0117 -12.4746 26.2607v33.001
c0 8.07031 2.96973 15.8994 8.25781 22.0527v43.4453c-0.484375 4.83203 -2.19727 32.0977 17.5283 54.5889c17.1572 19.5771 44.9258 29.4912 82.5439 29.4912s65.3867 -9.91406 82.5439 -29.501c19.7256 -22.4902 18.0127 -49.7568 17.5283 -54.5879v-43.4453
c5.29688 -6.15332 8.25781 -13.9824 8.25781 -22.0537v-33.001c0 -13.2646 -7.61523 -25.0137 -19.4092 -30.6172c-5.96777 -17.25 -14.1504 -33.2803 -24.3535 -47.6904c-1.99121 -2.80176 -3.91895 -5.35254 -5.74316 -7.60547v-27.5273
c0 -7.90332 4.39355 -15.0156 11.4688 -18.5527l78.8203 -39.4053c2.82031 -1.41504 5.57617 -3.10938 8.3125 -4.99902c49.0029 43.5107 79.9561 106.924 79.9561 177.459c0 130.896 -106.486 237.382 -237.382 237.382s-237.382 -106.486 -237.382 -237.382z
M395.255 -0.0654297c1.00488 0.726562 2.0293 1.4248 3.02539 2.17871c-0.493164 0.260742 -0.987305 0.521484 -1.48926 0.772461l-78.8203 39.4053c-13.4238 6.70312 -21.7646 20.2012 -21.7646 35.207v34.4346l2.30859 2.63477
c2.03906 2.33594 4.41211 5.38965 6.85156 8.83398c9.92383 14.0195 17.7432 29.7793 23.2354 46.8438l1.48926 4.60742l4.62695 1.4248c6.47949 2.00098 10.9941 8.02441 10.9941 14.6611v33.001c0 4.3291 -1.84375 8.36914 -5.18555 11.3848l-3.07227 2.77441
l0.0839844 53.0713c0.0185547 0.185547 2.59766 22.9932 -13.1533 40.7832c-13.498 15.2295 -36.4922 22.9561 -68.3848 22.9561c-32.0137 0 -55.082 -7.79199 -68.543 -23.1328c-15.7695 -17.9766 -13.0234 -40.3643 -12.9951 -40.5879l0.0839844 -1.21973v-51.8516
l-3.07227 -2.77441c-3.35156 -3.02539 -5.18555 -7.05566 -5.18555 -11.3848v-33.001c0 -5.22168 2.68164 -10.0625 7.15918 -12.958l3.17383 -2.05762l0.847656 -3.68555c7.60547 -33.1504 27.7314 -57.6328 27.9365 -57.8652l2.14062 -2.58789l0.00976562 -33.5322
c0 -14.4189 -7.86621 -27.666 -20.5264 -34.5732l-73.6074 -40.1504c-0.297852 -0.167969 -0.595703 -0.334961 -0.893555 -0.50293c0.418945 -0.316406 0.819336 -0.651367 1.23828 -0.967773c4.05859 -3.04395 8.22949 -5.9209 12.4551 -8.68555
c1.34082 -0.875 2.69043 -1.74121 4.0498 -2.59766c4.58887 -2.86719 9.24414 -5.61328 14.001 -8.1543c0.669922 -0.363281 1.35938 -0.698242 2.03809 -1.05176c5.21387 -2.70898 10.4922 -5.27832 15.8721 -7.59668
c0.0380859 -0.0185547 0.0839844 -0.0371094 0.121094 -0.0556641c5.68848 -2.43848 11.4785 -4.64551 17.334 -6.6377c0.363281 -0.121094 0.735352 -0.250977 1.09863 -0.37207c11.7939 -3.95605 23.9053 -6.98145 36.2119 -9.03906
c0.260742 -0.046875 0.521484 -0.0927734 0.782227 -0.139648c5.81836 -0.949219 11.6924 -1.64746 17.5938 -2.16895c1.00586 -0.0927734 2.02051 -0.158203 3.03516 -0.232422c5.85547 -0.4375 11.7383 -0.726562 17.6406 -0.726562
c5.83691 0 11.6455 0.279297 17.4268 0.716797c1.04199 0.0742188 2.07617 0.139648 3.10938 0.232422c5.8457 0.512695 11.6729 1.19238 17.4541 2.13184c0.167969 0.0283203 0.334961 0.0654297 0.50293 0.09375c6.14355 1.01465 12.251 2.25195 18.2832 3.74219
c0.0185547 0 0.0371094 0.00878906 0.0556641 0.00878906c5.97656 1.48047 11.8877 3.20215 17.7246 5.13867c0.400391 0.130859 0.791016 0.270508 1.18164 0.400391c11.1436 3.75195 21.9883 8.36914 32.4707 13.7402c1.01465 0.521484 2.0293 1.02441 3.03418 1.55469
c4.56152 2.41992 9.03027 5.00781 13.4238 7.72656c1.57324 0.977539 3.10938 1.98242 4.65527 2.98828c3.36035 2.1875 6.67383 4.47754 9.93262 6.8418z" />
    <glyph glyph-name="uniF108" unicode="&#xf108;" 
d="M255.992 -64c-141.159 0 -255.992 114.85 -255.992 256.008c0 141.159 114.833 255.992 255.992 255.992c141.158 0 255.991 -114.833 255.991 -255.992c0.0166016 -141.158 -114.833 -256.008 -255.991 -256.008zM255.992 418.756
c-125.037 0 -226.748 -101.728 -226.748 -226.748c0 -125.02 101.711 -226.73 226.748 -226.73c125.02 0 226.73 101.711 226.73 226.73c0 125.021 -101.711 226.748 -226.73 226.748zM356.928 177.387h-201.872c-8.07715 0 -14.6387 6.52734 -14.6387 14.6211
c0 8.07812 6.54492 14.6387 14.6387 14.6387h201.872c8.07812 0 14.6221 -6.56055 14.6221 -14.6387c0 -8.09375 -6.52832 -14.6211 -14.6221 -14.6211zM255.992 76.4502c-8.07812 0 -14.6387 6.54395 -14.6387 14.6221v201.872c0 8.07715 6.56055 14.6387 14.6387 14.6387
c8.07715 0 14.6211 -6.56152 14.6211 -14.6387v-201.872c0 -8.09375 -6.52734 -14.6221 -14.6211 -14.6221z" />
    <glyph glyph-name="uniF104" unicode="&#xf104;" 
d="M506.555 239.936c5.92871 -4.34082 7.2168 -12.6641 2.87402 -18.5918c-2.60547 -3.55957 -6.64746 -5.44434 -10.7441 -5.44434c-2.72754 0 -5.47949 0.834961 -7.84766 2.56934l-234.837 171.943l-234.837 -171.944c-5.92676 -4.33887 -14.252 -3.05273 -18.5928 2.875
c-4.3418 5.92871 -3.05371 14.252 2.875 18.5928l242.697 177.697c4.67871 3.42578 11.0361 3.42578 15.7168 0zM442.246 215.457c7.34668 0 13.3027 -5.95605 13.3037 -13.3037v-225.054c0 -7.34668 -5.95605 -13.3027 -13.3027 -13.3027h-133.029
c-7 0 -12.7266 5.41211 -13.251 12.2793c-0.0322266 0.306641 -0.0517578 0.640625 -0.0517578 1.02344v128.891c0 22.0078 -17.9053 39.9141 -39.9141 39.9141s-39.9141 -17.9053 -39.9141 -39.9141v-128.891c0 -0.384766 -0.0195312 -0.724609 -0.0517578 -1.03516
c-0.530273 -6.8623 -6.25488 -12.2676 -13.251 -12.2676h-133.029c-7.3457 0 -13.3027 5.95605 -13.3027 13.3027v225.054c0 7.34668 5.95703 13.3027 13.3027 13.3027s13.3027 -5.95605 13.3027 -13.3027v-211.749h106.424v115.587
c0 36.6777 29.8418 66.5195 66.5195 66.5195s66.5205 -29.8398 66.5205 -66.5195v-115.586h106.422v211.749c0 7.34668 5.95703 13.3027 13.3027 13.3027z" />
    <glyph glyph-name="uniF106" unicode="&#xf106;" 
d="M492.557 47.4404c11.9746 -11.9766 11.9746 -31.46 -0.000976562 -43.4355l-26.0898 -26.0898c-5.79883 -5.79785 -13.5107 -8.99414 -21.7158 -8.99414c-2.92969 0 -5.79199 0.424805 -8.53223 1.21289l-5.47363 -5.47363
c-19.0127 -19.0117 -45.5371 -28.6602 -77.3506 -28.6602c-19.4023 0 -40.7695 3.58594 -63.6094 10.8232c-56.8574 18.0186 -117.088 56.8584 -169.597 109.367c-52.5098 52.5068 -91.3496 112.737 -109.366 169.595c-18.3994 58.0684 -13.1924 106.638 14.5605 137.487
c0.415039 0.53125 8.75879 8.95508 8.75879 8.95508c-2.98438 10.3955 -0.400391 22.0674 7.77344 30.2412l26.0898 26.0898c5.80078 5.79883 13.5107 8.99414 21.7158 8.99414c8.20312 0 15.916 -3.19336 21.7158 -8.99414l100.323 -100.323
c11.9756 -11.9766 11.9756 -31.459 0 -43.4346l-26.0879 -26.0879c-5.98926 -5.9873 -13.8525 -8.97949 -21.7178 -8.97949c-2.87207 0 -5.74219 0.407227 -8.52344 1.20703l-9.85156 -9.85156l-0.00195312 -0.00195312
c-6.99023 -7.00293 3.75195 -50.5293 56.3662 -103.142c52.6221 -52.6221 96.1543 -63.3613 103.145 -56.3633l0.0078125 0.0078125l9.84277 9.84277c-2.98438 10.3965 -0.400391 22.0674 7.77344 30.2412l26.0879 26.0879c11.9775 11.9756 31.459 11.9756 43.4355 0z
M89.7197 406.843l-26.0889 -26.0898l50.1631 -50.1611l49.7871 -49.7871l0.375 -0.375l0.0136719 -0.0136719l26.0742 26.1016zM409.029 -13.623l2.77441 2.77344l-77.8564 77.8555l-7.13281 -7.13281
c-0.00390625 -0.00292969 -0.00585938 -0.00488281 -0.00878906 -0.0078125c-7.45215 -7.45312 -17.2432 -10.7783 -28.5273 -10.7783c-33.5586 0 -80.3174 29.4062 -118.052 67.1396c-50.4141 50.415 -85.9629 116.94 -56.3779 146.562
c0.00683594 0.00585938 0.0107422 0.0117188 0.015625 0.0166016l7.14062 7.1416l-77.8564 77.8555l-2.77051 -2.76953l-0.00195312 -0.00195312c-22.0957 -22.0977 -25.7451 -61.1504 -10.2754 -109.967c16.5576 -52.2539 52.7139 -108.064 101.807 -157.156
c49.0908 -49.0918 104.903 -85.248 157.155 -101.807c48.8154 -15.4697 87.8672 -11.8203 109.962 10.2705zM444.752 -0.368164c0.00878906 -0.00878906 26.0879 26.0898 26.0879 26.0898l-100.324 100.322l-26.0879 -26.0879zM388.818 324.816
c29.2051 -29.209 45.291 -68.04 45.29 -109.345c0 -8.47852 -6.87598 -15.3535 -15.3564 -15.3535s-15.3555 6.87695 -15.3555 15.3574c0.000976562 33.0996 -12.8887 64.2188 -36.2949 87.624c-23.4082 23.4072 -54.5273 36.2998 -87.6279 36.2979
c-8.47949 0 -15.3555 6.875 -15.3555 15.3555c0 8.48145 6.875 15.3564 15.3555 15.3564c41.3027 0.000976562 80.1357 -16.084 109.345 -45.293zM443.895 379.893c43.918 -43.9199 68.1064 -102.312 68.1045 -164.424c0 -8.47852 -6.87598 -15.3535 -15.3564 -15.3535
s-15.3555 6.875 -15.3555 15.3555c0.000976562 53.9072 -20.9922 104.588 -59.1104 142.706c-38.1211 38.1191 -88.8018 59.1133 -142.709 59.1113c-8.47949 0 -15.3555 6.875 -15.3555 15.3555s6.875 15.3564 15.3555 15.3564
c62.1104 0.00195312 120.504 -24.1855 164.427 -68.1074zM333.737 269.74c14.707 -14.708 22.4775 -33.4727 22.4766 -54.2646c-0.00195312 -8.47852 -6.875 -15.3535 -15.3555 -15.3535h-0.00195312c-8.47949 0.00195312 -15.3564 6.87695 -15.3545 15.3584
c0.00195312 12.4688 -4.66016 23.7236 -13.4785 32.5439c-8.94629 8.94434 -19.8955 13.4805 -32.5391 13.4805h-0.00585938c-8.47949 -0.00195312 -15.3555 6.87305 -15.3574 15.3545s6.87305 15.3555 15.3535 15.3574h0.00683594
c20.791 0 39.5498 -7.77051 54.2559 -22.4766z" />
    <glyph glyph-name="uniF107" unicode="&#xf107;" 
d="M446.812 -45.9658c2.25879 -4.77734 1.30664 -10.4531 -2.38477 -14.2314c-2.42871 -2.48438 -5.70605 -3.80273 -9.03711 -3.80273c-1.7334 0 -3.48242 0.358398 -5.13477 1.09277l-84.5576 37.6465l-84.5586 -37.6465c-3.27051 -1.45508 -7.00586 -1.45508 -10.2764 0
l-84.5586 37.6465l-84.5576 -37.6465c-4.82715 -2.14746 -10.4795 -1.06543 -14.1719 2.71094c-3.69434 3.77734 -4.64746 9.45508 -2.38867 14.2305l67.4971 142.782c1.29199 2.7334 3.52246 4.91211 6.28516 6.1416l33.7744 15.0312l-58.1846 97.5166
c-0.138672 0.234375 -0.269531 0.47168 -0.393555 0.712891c-11.5537 22.5566 -17.583 47.9639 -17.4307 73.4795c0.248047 41.7529 16.6992 81.1953 46.3252 111.065c29.6299 29.8721 68.9375 46.6416 110.686 47.2207c42.9854 0.603516 83.5029 -15.6875 114.087 -45.8496
c30.5889 -30.1689 47.4346 -70.4424 47.4346 -113.401c0 -25.5371 -5.86523 -49.9365 -17.4336 -72.5156c-0.125 -0.242188 -0.255859 -0.478516 -0.394531 -0.712891l-58.1855 -97.5176l33.5801 -14.9492c2.79883 -1.19141 5.13281 -3.37402 6.48047 -6.22266z
M136.473 228.094l108.68 -182.147c3.31641 -5.56055 8.69043 -6.16016 10.8486 -6.16016c2.15723 0 7.53125 0.599609 10.8486 6.16016l108.679 182.147c9.60352 18.8809 14.4727 39.2793 14.4727 60.6387c0 36.1445 -14.1729 70.0283 -39.9111 95.4111
c-25.7295 25.3779 -59.8271 39.0625 -95.9932 38.5762c-72.4072 -1.00293 -131.666 -60.7441 -132.094 -133.173c-0.128906 -21.6475 4.74023 -42.3213 14.4697 -61.4531zM350.834 0.109375l58.5742 -26.0811l-50.9355 107.744l-32.2607 14.3604l-37.668 -63.1328
c-6.9043 -11.5713 -19.0723 -18.4805 -32.5469 -18.4805s-25.6426 6.90918 -32.5469 18.4814l-37.668 63.1328l-32.2578 -14.3555l-50.9385 -107.749l58.5781 26.0801c3.27051 1.45508 7.00586 1.45508 10.2773 0l84.5576 -37.6465l84.5576 37.6465
c3.27148 1.45508 7.00684 1.45508 10.2773 0zM256.004 346.393c31.793 0 57.6582 -25.8643 57.6582 -57.6572s-25.8652 -57.6592 -57.6582 -57.6582c-31.7939 0 -57.6592 25.8652 -57.6592 57.6582s25.8652 57.6572 57.6592 57.6572zM256.004 256.343
c17.8613 0 32.3926 14.5312 32.3926 32.3926c0 17.8604 -14.5312 32.3916 -32.3926 32.3916c-17.8623 0 -32.3926 -14.5312 -32.3926 -32.3916c0 -17.8633 14.5312 -32.3936 32.3926 -32.3926z" />
    <glyph glyph-name="uniF10A" unicode="&#xf10a;" 
d="M108.064 148.265c7.6748 0 13.8838 -6.21875 13.8838 -13.8838s-6.20898 -13.8838 -13.8838 -13.8838c-7.66406 0 -13.873 6.21973 -13.873 13.8838c0 7.66504 6.20898 13.8838 13.873 13.8838zM477.28 254.676c21.0879 -8.46094 34.7197 -28.6045 34.7188 -51.3262
v-70.2344c0 -5.7793 -4.69043 -10.4707 -10.4697 -10.4707h-47.7451c-2.25098 -10.1865 -7.41309 -19.5059 -15.0459 -26.9395c-10.125 -9.85352 -23.4961 -15.2871 -37.6416 -15.2871c-14.1348 0 -27.5049 5.43359 -37.6299 15.2969
c-7.63281 7.42383 -12.7949 16.7422 -15.0459 26.9297h-187.66c-2.24121 -10.1553 -7.41309 -19.4951 -15.0459 -26.9395c-10.1348 -9.85352 -23.5059 -15.2871 -37.6406 -15.2871c-14.1455 0 -27.5166 5.43359 -37.6514 15.2871
c-7.62207 7.43359 -12.7842 16.752 -15.0352 26.9395h-44.918c-5.77832 0 -10.4697 4.69043 -10.4697 10.4707v37.4209c0 15.5264 5.59082 30.5518 15.748 42.3008c10.166 11.7578 24.2178 19.4639 39.5879 21.7051l63.4082 9.24512l88.3906 44.9492
c19.0986 9.7168 40.5215 14.8467 61.9434 14.8467h59.7959c17.5059 0 34.6143 -3.29785 50.8535 -9.81152zM371.938 274.339c-2.16602 0.858398 -4.34473 1.6543 -6.5332 2.38672l25.0137 -32.5723h56.8232zM278.899 282.642v-38.4883h85.1123l-29.4531 38.3525
c-1.88379 0.09375 -3.77832 0.135742 -5.68457 0.135742h-49.9746zM216.621 270.067l-50.959 -25.9141h92.2959v37.9336c-14.3652 -1.39258 -28.4688 -5.47559 -41.3369 -12.0195zM56.7393 213.538c-15.0361 -2.77539 -27.2549 -13.2979 -32.709 -26.9824
c15.5586 1.4873 28.4053 12.418 32.709 26.9824zM108.064 101.358c18.2393 0 33.0234 14.7832 33.0225 33.0225c0 18.2393 -14.7842 33.0234 -33.0225 33.0234c-18.2393 0 -33.0234 -14.7842 -33.0234 -33.0234s14.7842 -33.0225 33.0234 -33.0225zM401.109 101.358
c18.2383 0 33.0225 14.7832 33.0225 33.0225s-14.7842 33.0234 -33.0225 33.0234c-18.2393 0 -33.0342 -14.7842 -33.0342 -33.0234s14.7949 -33.0225 33.0342 -33.0225zM491.059 143.585v31.2441h-4.78418c-19.1514 0 -34.7412 15.5898 -34.7412 34.751v13.6318h-66.2559
h-0.0107422h-0.00976562h-262.492l-44.0273 -6.41797c-3.6543 -28.752 -28.1338 -51.0752 -57.7959 -51.3467v-21.8623h33.9658c4.38672 25.3799 26.542 44.7607 53.168 44.7607c26.6152 0 48.7812 -19.3809 53.168 -44.7607h186.697
c4.38672 25.3799 26.542 44.7607 53.1572 44.7607c26.626 0 48.7812 -19.3809 53.168 -44.7607h36.793zM491.059 195.769v7.58008c0 7.31934 -2.29297 14.1875 -6.30273 19.8623h-12.2822v-13.6318c0 -7.6123 6.19824 -13.8105 13.8008 -13.8105h4.78418zM401.109 148.265
c7.66406 0 13.873 -6.21875 13.873 -13.8838s-6.20898 -13.8838 -13.873 -13.8838c-7.67578 0 -13.8848 6.21973 -13.8848 13.8838c0 7.66504 6.20898 13.8838 13.8848 13.8838zM290.199 193.867c5.78223 0 10.4697 -4.68848 10.4697 -10.4697
c0 -5.78223 -4.6875 -10.4707 -10.4697 -10.4707h-69.4463c-5.78223 0 -10.4697 4.68848 -10.4697 10.4707c0 5.78125 4.68652 10.4697 10.4697 10.4697h69.4463zM108.064 148.265c7.6748 0 13.8838 -6.21875 13.8838 -13.8838s-6.20898 -13.8838 -13.8838 -13.8838
c-7.66406 0 -13.873 6.21973 -13.873 13.8838c0 7.66504 6.20898 13.8838 13.873 13.8838zM401.109 148.265c7.66406 0 13.873 -6.21875 13.873 -13.8838s-6.20898 -13.8838 -13.873 -13.8838c-7.67578 0 -13.8848 6.21973 -13.8848 13.8838
c0 7.66504 6.20898 13.8838 13.8848 13.8838zM108.064 148.265c7.6748 0 13.8838 -6.21875 13.8838 -13.8838s-6.20898 -13.8838 -13.8838 -13.8838c-7.66406 0 -13.873 6.21973 -13.873 13.8838c0 7.66504 6.20898 13.8838 13.873 13.8838zM401.109 148.265
c7.66406 0 13.873 -6.21875 13.873 -13.8838s-6.20898 -13.8838 -13.873 -13.8838c-7.67578 0 -13.8848 6.21973 -13.8848 13.8838c0 7.66504 6.20898 13.8838 13.8848 13.8838z" />
    <glyph glyph-name="uniF10C" unicode="&#xf10c;" 
d="M197.2 136.8c-6.2002 -4.09961 -10.4004 -9.2998 -13.4004 -16.7002h44.7002v-16.5996h-48.9004c-0.699219 -4.59961 0 -13.5 1 -15.5996h48.9004v-16.6006h-43.7002c7.2998 -13.5996 16.6006 -19.7998 31.2002 -19.7998c7.2998 0 12.5 1.09961 17.7002 4.2002
c5.2002 2.09961 10.3994 6.2998 15.5996 12.5l13.5 -16.6006c-11.3994 -14.5 -27 -21.7998 -46.7998 -21.7998c-13.5996 0 -25 4.10059 -35.4004 11.4004c-10.3994 7.2998 -17.5996 17.7002 -21.7998 30.2002h-20.7998v16.5996h16.5996c0 3.09961 -1.19922 7.5 -1 15.5996
h-15.5996v1v16.6006h19.7998c4.10059 13.5996 11.4004 24 21.7998 32.2998c10.4004 8.2998 22.9004 12.5 36.4004 12.5c19.7002 0 36.4004 -7.2998 47.7998 -22l-13.5 -16.5996c-5.2002 6.2998 -10.3994 10.3994 -15.5996 12.5
c-5.2002 2.09961 -11.4004 3.09961 -18.7002 3.09961s-13.5996 -2 -19.7998 -6.2002zM325.2 436.5l115.5 -115.5v-373.5h-370.4v489h254.9zM406.3 326.2l-74.8994 74.8994v-74.8994h74.8994zM90 -31.7002v0.100586h330.9v338.1h-99.9004
c-5.2002 0 -10.4004 4.2002 -10.4004 10.4004v98.7998h-220.6v-447.4z" />
  </font>
</defs></svg>
